{
  "name": "hackthon_desafio_gorila",
  "version": "1.0.0",
  "description": "",
  "main": "index.js",
  "scripts": {
    "test": "jest --runInBand ./test",
    "develop": "nodemon src/server.js",
    "start": "nodemon src/server.js"
  },
  "keywords": [],
  "author": "",
  "license": "ISC",
  "dependencies": {
    "aws-sdk": "^2.668.0",
    "bcryptjs": "^2.4.3",
    "cors": "^2.8.5",
    "dotenv": "^8.2.0",
    "express": "^4.17.1",
    "jsonwebtoken": "^8.5.1",
    "mongoose": "^5.9.10",
    "multer": "^1.4.2",
    "multer-s3": "^2.9.0",
    "socket.io": "^2.3.0",
    "supertest": "^4.0.2",
    "twilio": "^3.43.0",
    "yup": "^0.28.5"
  },
  "devDependencies": {
    "jest": "^26.0.1",
    "nodemon": "^2.0.3"
  },
  "jest": {
    "testEnvironment": "node"
  }
}
